^C:\USERS\MAPC1\ONEDRIVE\DOCUMENTS\VISUAL STUDIO 2015\PROJECTS\ADVANCED TOPICS IN PROGRAMMING\WEEK2_EXERCISES\EXAMPLE3\STDAFX.CPP
C:\USERS\MAPC1\ONEDRIVE\DOCUMENTS\VISUAL STUDIO 2015\PROJECTS\ADVANCED TOPICS IN PROGRAMMING\WEEK2_EXERCISES\EXAMPLE3\DEBUG\EXAMPLE_3.PCH
C:\USERS\MAPC1\ONEDRIVE\DOCUMENTS\VISUAL STUDIO 2015\PROJECTS\ADVANCED TOPICS IN PROGRAMMING\WEEK2_EXERCISES\EXAMPLE3\DEBUG\VC140.PDB
C:\USERS\MAPC1\ONEDRIVE\DOCUMENTS\VISUAL STUDIO 2015\PROJECTS\ADVANCED TOPICS IN PROGRAMMING\WEEK2_EXERCISES\EXAMPLE3\DEBUG\VC140.IDB
C:\USERS\MAPC1\ONEDRIVE\DOCUMENTS\VISUAL STUDIO 2015\PROJECTS\ADVANCED TOPICS IN PROGRAMMING\WEEK2_EXERCISES\EXAMPLE3\DEBUG\STDAFX.OBJ
^C:\USERS\MAPC1\ONEDRIVE\DOCUMENTS\VISUAL STUDIO 2015\PROJECTS\ADVANCED TOPICS IN PROGRAMMING\WEEK2_EXERCISES\EXAMPLE3\EXAMPLE_3.CPP
C:\USERS\MAPC1\ONEDRIVE\DOCUMENTS\VISUAL STUDIO 2015\PROJECTS\ADVANCED TOPICS IN PROGRAMMING\WEEK2_EXERCISES\EXAMPLE3\DEBUG\VC140.PDB
C:\USERS\MAPC1\ONEDRIVE\DOCUMENTS\VISUAL STUDIO 2015\PROJECTS\ADVANCED TOPICS IN PROGRAMMING\WEEK2_EXERCISES\EXAMPLE3\DEBUG\VC140.IDB
C:\USERS\MAPC1\ONEDRIVE\DOCUMENTS\VISUAL STUDIO 2015\PROJECTS\ADVANCED TOPICS IN PROGRAMMING\WEEK2_EXERCISES\EXAMPLE3\DEBUG\EXAMPLE_3.OBJ
