^C:\USERS\MAPC1\ONEDRIVE\DOCUMENTS\VISUAL STUDIO 2015\PROJECTS\31_10_16_CLASS\EXAMPLE_3\STDAFX.CPP
/c /ZI /nologo /W3 /WX- /sdl /Od /Oy- /D WIN32 /D _DEBUG /D _CONSOLE /D _UNICODE /D UNICODE /Gm /EHsc /RTC1 /MDd /GS /fp:precise /Zc:wchar_t /Zc:forScope /Zc:inline /Yc"stdafx.h" /Fp"DEBUG\EXAMPLE_3.PCH" /Fo"DEBUG\\" /Fd"DEBUG\VC140.PDB" /Gd /TP /analyze- C:\USERS\MAPC1\ONEDRIVE\DOCUMENTS\VISUAL STUDIO 2015\PROJECTS\31_10_16_CLASS\EXAMPLE_3\STDAFX.CPP
^C:\USERS\MAPC1\ONEDRIVE\DOCUMENTS\VISUAL STUDIO 2015\PROJECTS\31_10_16_CLASS\EXAMPLE_3\EXAMPLE_3.CPP
/c /ZI /nologo /W3 /WX- /sdl /Od /Oy- /D WIN32 /D _DEBUG /D _CONSOLE /D _UNICODE /D UNICODE /Gm /EHsc /RTC1 /MDd /GS /fp:precise /Zc:wchar_t /Zc:forScope /Zc:inline /Yu"stdafx.h" /Fp"DEBUG\EXAMPLE_3.PCH" /Fo"DEBUG\\" /Fd"DEBUG\VC140.PDB" /Gd /TP /analyze- C:\USERS\MAPC1\ONEDRIVE\DOCUMENTS\VISUAL STUDIO 2015\PROJECTS\31_10_16_CLASS\EXAMPLE_3\EXAMPLE_3.CPP
^C:\USERS\MAPC1\ONEDRIVE\DOCUMENTS\VISUAL STUDIO 2015\PROJECTS\WEEK3_EXERCISES\EXAMPLE_3\STDAFX.CPP
/c /ZI /nologo /W3 /WX- /sdl /Od /Oy- /D WIN32 /D _DEBUG /D _CONSOLE /D _UNICODE /D UNICODE /Gm /EHsc /RTC1 /MDd /GS /fp:precise /Zc:wchar_t /Zc:forScope /Zc:inline /Yc"stdafx.h" /Fp"DEBUG\EXAMPLE_3.PCH" /Fo"DEBUG\\" /Fd"DEBUG\VC140.PDB" /Gd /TP /analyze- C:\USERS\MAPC1\ONEDRIVE\DOCUMENTS\VISUAL STUDIO 2015\PROJECTS\WEEK3_EXERCISES\EXAMPLE_3\STDAFX.CPP
^C:\USERS\MAPC1\ONEDRIVE\DOCUMENTS\VISUAL STUDIO 2015\PROJECTS\WEEK3_EXERCISES\EXAMPLE_3\EXAMPLE_3.CPP
/c /ZI /nologo /W3 /WX- /sdl /Od /Oy- /D WIN32 /D _DEBUG /D _CONSOLE /D _UNICODE /D UNICODE /Gm /EHsc /RTC1 /MDd /GS /fp:precise /Zc:wchar_t /Zc:forScope /Zc:inline /Yu"stdafx.h" /Fp"DEBUG\EXAMPLE_3.PCH" /Fo"DEBUG\\" /Fd"DEBUG\VC140.PDB" /Gd /TP /analyze- C:\USERS\MAPC1\ONEDRIVE\DOCUMENTS\VISUAL STUDIO 2015\PROJECTS\WEEK3_EXERCISES\EXAMPLE_3\EXAMPLE_3.CPP
^C:\USERS\MAPC1\ONEDRIVE\DOCUMENTS\VISUAL STUDIO 2015\PROJECTS\ADVANCED TOPICS IN PROGRAMMING\WEEK1_EXERCISES\EXAMPLE_3\STDAFX.CPP
/c /ZI /nologo /W3 /WX- /sdl /Od /Oy- /D WIN32 /D _DEBUG /D _CONSOLE /D _UNICODE /D UNICODE /Gm /EHsc /RTC1 /MDd /GS /fp:precise /Zc:wchar_t /Zc:forScope /Zc:inline /Yc"stdafx.h" /Fp"DEBUG\EXAMPLE_3.PCH" /Fo"DEBUG\\" /Fd"DEBUG\VC140.PDB" /Gd /TP /analyze- C:\USERS\MAPC1\ONEDRIVE\DOCUMENTS\VISUAL STUDIO 2015\PROJECTS\ADVANCED TOPICS IN PROGRAMMING\WEEK1_EXERCISES\EXAMPLE_3\STDAFX.CPP
^C:\USERS\MAPC1\ONEDRIVE\DOCUMENTS\VISUAL STUDIO 2015\PROJECTS\ADVANCED TOPICS IN PROGRAMMING\WEEK1_EXERCISES\EXAMPLE_3\EXAMPLE_3.CPP
/c /ZI /nologo /W3 /WX- /sdl /Od /Oy- /D WIN32 /D _DEBUG /D _CONSOLE /D _UNICODE /D UNICODE /Gm /EHsc /RTC1 /MDd /GS /fp:precise /Zc:wchar_t /Zc:forScope /Zc:inline /Yu"stdafx.h" /Fp"DEBUG\EXAMPLE_3.PCH" /Fo"DEBUG\\" /Fd"DEBUG\VC140.PDB" /Gd /TP /analyze- C:\USERS\MAPC1\ONEDRIVE\DOCUMENTS\VISUAL STUDIO 2015\PROJECTS\ADVANCED TOPICS IN PROGRAMMING\WEEK1_EXERCISES\EXAMPLE_3\EXAMPLE_3.CPP
