^C:\USERS\MAPC1\ONEDRIVE\DOCUMENTS\VISUAL STUDIO 2015\PROJECTS\31_10_16_CLASS\EXAMPLE_3\DEBUG\EXAMPLE_3.OBJ|C:\USERS\MAPC1\ONEDRIVE\DOCUMENTS\VISUAL STUDIO 2015\PROJECTS\31_10_16_CLASS\EXAMPLE_3\DEBUG\STDAFX.OBJ
/OUT:"C:\USERS\MAPC1\ONEDRIVE\DOCUMENTS\VISUAL STUDIO 2015\PROJECTS\31_10_16_CLASS\DEBUG\EXAMPLE_3.EXE" /INCREMENTAL /NOLOGO KERNEL32.LIB USER32.LIB GDI32.LIB WINSPOOL.LIB COMDLG32.LIB ADVAPI32.LIB SHELL32.LIB OLE32.LIB OLEAUT32.LIB UUID.LIB ODBC32.LIB ODBCCP32.LIB /MANIFEST /MANIFESTUAC:"level='asInvoker' uiAccess='false'" /manifest:embed /DEBUG /PDB:"C:\USERS\MAPC1\ONEDRIVE\DOCUMENTS\VISUAL STUDIO 2015\PROJECTS\31_10_16_CLASS\DEBUG\EXAMPLE_3.PDB" /SUBSYSTEM:CONSOLE /TLBID:1 /DYNAMICBASE /NXCOMPAT /IMPLIB:"C:\USERS\MAPC1\ONEDRIVE\DOCUMENTS\VISUAL STUDIO 2015\PROJECTS\31_10_16_CLASS\DEBUG\EXAMPLE_3.LIB" /MACHINE:X86 DEBUG\EXAMPLE_3.OBJDEBUG\STDAFX.OBJ
^C:\USERS\MAPC1\ONEDRIVE\DOCUMENTS\VISUAL STUDIO 2015\PROJECTS\WEEK3_EXERCISES\EXAMPLE_3\DEBUG\EXAMPLE_3.OBJ|C:\USERS\MAPC1\ONEDRIVE\DOCUMENTS\VISUAL STUDIO 2015\PROJECTS\WEEK3_EXERCISES\EXAMPLE_3\DEBUG\STDAFX.OBJ
/OUT:"C:\USERS\MAPC1\ONEDRIVE\DOCUMENTS\VISUAL STUDIO 2015\PROJECTS\WEEK3_EXERCISES\DEBUG\EXAMPLE_3.EXE" /INCREMENTAL /NOLOGO KERNEL32.LIB USER32.LIB GDI32.LIB WINSPOOL.LIB COMDLG32.LIB ADVAPI32.LIB SHELL32.LIB OLE32.LIB OLEAUT32.LIB UUID.LIB ODBC32.LIB ODBCCP32.LIB /MANIFEST /MANIFESTUAC:"level='asInvoker' uiAccess='false'" /manifest:embed /DEBUG /PDB:"C:\USERS\MAPC1\ONEDRIVE\DOCUMENTS\VISUAL STUDIO 2015\PROJECTS\WEEK3_EXERCISES\DEBUG\EXAMPLE_3.PDB" /SUBSYSTEM:CONSOLE /TLBID:1 /DYNAMICBASE /NXCOMPAT /IMPLIB:"C:\USERS\MAPC1\ONEDRIVE\DOCUMENTS\VISUAL STUDIO 2015\PROJECTS\WEEK3_EXERCISES\DEBUG\EXAMPLE_3.LIB" /MACHINE:X86 DEBUG\EXAMPLE_3.OBJDEBUG\STDAFX.OBJ
^C:\USERS\MAPC1\ONEDRIVE\DOCUMENTS\VISUAL STUDIO 2015\PROJECTS\ADVANCED TOPICS IN PROGRAMMING\WEEK1_EXERCISES\EXAMPLE_3\DEBUG\EXAMPLE_3.OBJ|C:\USERS\MAPC1\ONEDRIVE\DOCUMENTS\VISUAL STUDIO 2015\PROJECTS\ADVANCED TOPICS IN PROGRAMMING\WEEK1_EXERCISES\EXAMPLE_3\DEBUG\STDAFX.OBJ
/OUT:"C:\USERS\MAPC1\ONEDRIVE\DOCUMENTS\VISUAL STUDIO 2015\PROJECTS\ADVANCED TOPICS IN PROGRAMMING\WEEK1_EXERCISES\DEBUG\EXAMPLE_3.EXE" /INCREMENTAL /NOLOGO KERNEL32.LIB USER32.LIB GDI32.LIB WINSPOOL.LIB COMDLG32.LIB ADVAPI32.LIB SHELL32.LIB OLE32.LIB OLEAUT32.LIB UUID.LIB ODBC32.LIB ODBCCP32.LIB /MANIFEST /MANIFESTUAC:"level='asInvoker' uiAccess='false'" /manifest:embed /DEBUG /PDB:"C:\USERS\MAPC1\ONEDRIVE\DOCUMENTS\VISUAL STUDIO 2015\PROJECTS\ADVANCED TOPICS IN PROGRAMMING\WEEK1_EXERCISES\DEBUG\EXAMPLE_3.PDB" /SUBSYSTEM:CONSOLE /TLBID:1 /DYNAMICBASE /NXCOMPAT /IMPLIB:"C:\USERS\MAPC1\ONEDRIVE\DOCUMENTS\VISUAL STUDIO 2015\PROJECTS\ADVANCED TOPICS IN PROGRAMMING\WEEK1_EXERCISES\DEBUG\EXAMPLE_3.LIB" /MACHINE:X86 DEBUG\EXAMPLE_3.OBJDEBUG\STDAFX.OBJ
