^C:\USERS\MAPC1\ONEDRIVE\DOCUMENTS\VISUAL STUDIO 2015\PROJECTS\31_10_16_CLASS\EXAMPLE_4\DEBUG\EXAMPLE_4.OBJ|C:\USERS\MAPC1\ONEDRIVE\DOCUMENTS\VISUAL STUDIO 2015\PROJECTS\31_10_16_CLASS\EXAMPLE_4\DEBUG\STDAFX.OBJ
C:\USERS\MAPC1\ONEDRIVE\DOCUMENTS\VISUAL STUDIO 2015\PROJECTS\31_10_16_CLASS\DEBUG\EXAMPLE_4.ILK
C:\USERS\MAPC1\ONEDRIVE\DOCUMENTS\VISUAL STUDIO 2015\PROJECTS\31_10_16_CLASS\DEBUG\EXAMPLE_4.EXE
C:\USERS\MAPC1\ONEDRIVE\DOCUMENTS\VISUAL STUDIO 2015\PROJECTS\31_10_16_CLASS\DEBUG\EXAMPLE_4.PDB
