^C:\USERS\MAPC1\ONEDRIVE\DOCUMENTS\VISUAL STUDIO 2015\PROJECTS\STACKOBJECTS\STACKOBJECTS\STDAFX.CPP
/c /ZI /nologo /W3 /WX- /sdl /Od /Oy- /D WIN32 /D _DEBUG /D _CONSOLE /D _UNICODE /D UNICODE /Gm /EHsc /RTC1 /MDd /GS /fp:precise /Zc:wchar_t /Zc:forScope /Zc:inline /Yc"stdafx.h" /Fp"DEBUG\STACKOBJECTS.PCH" /Fo"DEBUG\\" /Fd"DEBUG\VC140.PDB" /Gd /TP /analyze- C:\USERS\MAPC1\ONEDRIVE\DOCUMENTS\VISUAL STUDIO 2015\PROJECTS\STACKOBJECTS\STACKOBJECTS\STDAFX.CPP
^C:\USERS\MAPC1\ONEDRIVE\DOCUMENTS\VISUAL STUDIO 2015\PROJECTS\STACKOBJECTS\STACKOBJECTS\STACK.CPP
/c /ZI /nologo /W3 /WX- /sdl /Od /Oy- /D WIN32 /D _DEBUG /D _CONSOLE /D _UNICODE /D UNICODE /Gm /EHsc /RTC1 /MDd /GS /fp:precise /Zc:wchar_t /Zc:forScope /Zc:inline /Yu"stdafx.h" /Fp"DEBUG\STACKOBJECTS.PCH" /Fo"DEBUG\\" /Fd"DEBUG\VC140.PDB" /Gd /TP /analyze- C:\USERS\MAPC1\ONEDRIVE\DOCUMENTS\VISUAL STUDIO 2015\PROJECTS\STACKOBJECTS\STACKOBJECTS\STACK.CPP
^C:\USERS\MAPC1\ONEDRIVE\DOCUMENTS\VISUAL STUDIO 2015\PROJECTS\STACKOBJECTS\STACKOBJECTS\STACKOBJECTS.CPP
/c /ZI /nologo /W3 /WX- /sdl /Od /Oy- /D WIN32 /D _DEBUG /D _CONSOLE /D _UNICODE /D UNICODE /Gm /EHsc /RTC1 /MDd /GS /fp:precise /Zc:wchar_t /Zc:forScope /Zc:inline /Yu"stdafx.h" /Fp"DEBUG\STACKOBJECTS.PCH" /Fo"DEBUG\\" /Fd"DEBUG\VC140.PDB" /Gd /TP /analyze- C:\USERS\MAPC1\ONEDRIVE\DOCUMENTS\VISUAL STUDIO 2015\PROJECTS\STACKOBJECTS\STACKOBJECTS\STACKOBJECTS.CPP
^C:\USERS\MAPC1\ONEDRIVE\DOCUMENTS\VISUAL STUDIO 2015\PROJECTS\STACKOBJECTS\STACKOBJECTS\QUEUEOBJECTS.CPP
/c /ZI /nologo /W3 /WX- /sdl /Od /Oy- /D WIN32 /D _DEBUG /D _CONSOLE /D _UNICODE /D UNICODE /Gm /EHsc /RTC1 /MDd /GS /fp:precise /Zc:wchar_t /Zc:forScope /Zc:inline /Yu"stdafx.h" /Fp"DEBUG\STACKOBJECTS.PCH" /Fo"DEBUG\\" /Fd"DEBUG\VC140.PDB" /Gd /TP /analyze- C:\USERS\MAPC1\ONEDRIVE\DOCUMENTS\VISUAL STUDIO 2015\PROJECTS\STACKOBJECTS\STACKOBJECTS\QUEUEOBJECTS.CPP
^C:\USERS\MAPC1\ONEDRIVE\DOCUMENTS\VISUAL STUDIO 2015\PROJECTS\STACKOBJECTS\STACKOBJECTS\PROGRAM.CPP
/c /ZI /nologo /W3 /WX- /sdl /Od /Oy- /D WIN32 /D _DEBUG /D _CONSOLE /D _UNICODE /D UNICODE /Gm /EHsc /RTC1 /MDd /GS /fp:precise /Zc:wchar_t /Zc:forScope /Zc:inline /Yu"stdafx.h" /Fp"DEBUG\STACKOBJECTS.PCH" /Fo"DEBUG\\" /Fd"DEBUG\VC140.PDB" /Gd /TP /analyze- C:\USERS\MAPC1\ONEDRIVE\DOCUMENTS\VISUAL STUDIO 2015\PROJECTS\STACKOBJECTS\STACKOBJECTS\PROGRAM.CPP
^C:\USERS\MAPC1\ONEDRIVE\DOCUMENTS\VISUAL STUDIO 2015\PROJECTS\WEEK6_STACKOBJECTS\STACKOBJECTS\STDAFX.CPP
/c /ZI /nologo /W3 /WX- /sdl /Od /Oy- /D WIN32 /D _DEBUG /D _CONSOLE /D _UNICODE /D UNICODE /Gm /EHsc /RTC1 /MDd /GS /fp:precise /Zc:wchar_t /Zc:forScope /Zc:inline /Yc"stdafx.h" /Fp"DEBUG\STACKOBJECTS.PCH" /Fo"DEBUG\\" /Fd"DEBUG\VC140.PDB" /Gd /TP /analyze- C:\USERS\MAPC1\ONEDRIVE\DOCUMENTS\VISUAL STUDIO 2015\PROJECTS\WEEK6_STACKOBJECTS\STACKOBJECTS\STDAFX.CPP
^C:\USERS\MAPC1\ONEDRIVE\DOCUMENTS\VISUAL STUDIO 2015\PROJECTS\WEEK6_STACKOBJECTS\STACKOBJECTS\QUEUEOBJECTS.CPP
/c /ZI /nologo /W3 /WX- /sdl /Od /Oy- /D WIN32 /D _DEBUG /D _CONSOLE /D _UNICODE /D UNICODE /Gm /EHsc /RTC1 /MDd /GS /fp:precise /Zc:wchar_t /Zc:forScope /Zc:inline /Yu"stdafx.h" /Fp"DEBUG\STACKOBJECTS.PCH" /Fo"DEBUG\\" /Fd"DEBUG\VC140.PDB" /Gd /TP /analyze- C:\USERS\MAPC1\ONEDRIVE\DOCUMENTS\VISUAL STUDIO 2015\PROJECTS\WEEK6_STACKOBJECTS\STACKOBJECTS\QUEUEOBJECTS.CPP
^C:\USERS\MAPC1\ONEDRIVE\DOCUMENTS\VISUAL STUDIO 2015\PROJECTS\WEEK6_STACKOBJECTS\STACKOBJECTS\STACK.CPP
/c /ZI /nologo /W3 /WX- /sdl /Od /Oy- /D WIN32 /D _DEBUG /D _CONSOLE /D _UNICODE /D UNICODE /Gm /EHsc /RTC1 /MDd /GS /fp:precise /Zc:wchar_t /Zc:forScope /Zc:inline /Yu"stdafx.h" /Fp"DEBUG\STACKOBJECTS.PCH" /Fo"DEBUG\\" /Fd"DEBUG\VC140.PDB" /Gd /TP /analyze- C:\USERS\MAPC1\ONEDRIVE\DOCUMENTS\VISUAL STUDIO 2015\PROJECTS\WEEK6_STACKOBJECTS\STACKOBJECTS\STACK.CPP
^C:\USERS\MAPC1\ONEDRIVE\DOCUMENTS\VISUAL STUDIO 2015\PROJECTS\WEEK6_STACKOBJECTS\STACKOBJECTS\PROGRAM.CPP
/c /ZI /nologo /W3 /WX- /sdl /Od /Oy- /D WIN32 /D _DEBUG /D _CONSOLE /D _UNICODE /D UNICODE /Gm /EHsc /RTC1 /MDd /GS /fp:precise /Zc:wchar_t /Zc:forScope /Zc:inline /Yu"stdafx.h" /Fp"DEBUG\STACKOBJECTS.PCH" /Fo"DEBUG\\" /Fd"DEBUG\VC140.PDB" /Gd /TP /analyze- C:\USERS\MAPC1\ONEDRIVE\DOCUMENTS\VISUAL STUDIO 2015\PROJECTS\WEEK6_STACKOBJECTS\STACKOBJECTS\PROGRAM.CPP
